…
# Merges 'election' & 'religion' datsets by keeping all rows & observations from both datasets
USelection <- election %>%
  full_join(religion, by = "state") %>%
  # Reorders appearance of variables in dataset for clarity
 select(state, region, trump_won_bin, trump_won, turnout, religiosity, college_grad, gdp_capita)


# Shows final dataset in tabular form
print(USelection)
```

    ## # A tibble: 51 x 8
    ##    state        region  trump_won_bin trump_won turnout religiosity college_grad
    ##    <chr>        <chr>           <dbl> <chr>       <dbl>       <dbl>        <dbl>
    ##  1 Alabama      South               1 yes          59            77         23.5
    ##  2 Alaska       West                1 yes          61.3          45         28  
    ##  3 Arizona      West                1 yes          55            53         27.5
    ##  4 Arkansas     South               1 yes          52.8          70         21.1
    ##  5 California   West                0 no           56.7          49         31.4
    ##  6 Colorado     West                0 no           70.1          47         38.1
    ##  7 Connecticut  Northe…             0 no           65.2          43         37.6
    ##  8 Delaware     South               0 no           64.4          52         30  
    ##  9 District of… South               0 no           60.9          53         54.6
    ## 10 Florida      South               1 yes          64.6          54         27.3
    ## # … with 41 more rows, and 1 more variable: gdp_capita <dbl>
…
