…
# Cleans up 'election' dataset
election <- election %>%
   # Removes extraneous variables
  select(-x, -year, -division) %>%  
  # Renames variables for clarity
  rename(turnout="turnoutho", highschool_grad="perhsed", college_grad="percoled", gdp_capita="gdppercap", swing_state="ss", trump_won="trumpw") %>%
  # Changes binary "1", "0" values to "yes", "no" respectively across categorical variables
  mutate(across(c(swing_state, trump_won),
                ~factor(ifelse(.x=="1", "yes", "no"))))

# Shows dataset & can observe for tidy data
print(election)
```

    ## # A tibble: 51 x 8
    ##    state      region turnout highschool_grad college_grad gdp_capita swing_state
    ##    <chr>      <chr>    <dbl>           <dbl>        <dbl>      <dbl> <fct>      
    ##  1 Alabama    South     59              84.3         23.5      42663 no         
    ##  2 Alaska     West      61.3            92.1         28        81801 no         
    ##  3 Arizona    West      55              86           27.5      43269 no         
    ##  4 Arkansas   South     52.8            84.8         21.1      41129 no         
    ##  5 California West      56.7            81.8         31.4      61924 no         
    ##  6 Colorado   West      70.1            90.7         38.1      58009 yes        
    ##  7 Connectic… North…    65.2            89.9         37.6      72331 no         
    ##  8 Delaware   South     64.4            88.4         30        69930 no         
    ##  9 District … South     60.9            89.3         54.6     181185 no         
    ## 10 Florida    South     64.6            86.9         27.3      42595 yes        
    ## # … with 41 more rows, and 1 more variable: trump_won <fct>

The **election** dataset contains 8 variables with 51 observations. Each
variable is saved in its own column and each observation is saved in its
own row.

``` r
# Opens 'age_religion' dataset in R
library(readxl)
age_religion <- read_excel("age_religion.xlsx")

# Shows dataset & can observe for tidy data
print(age_religion)
```

    ## # A tibble: 51 x 3
    ##    state                median_age religiosity
    ##    <chr>                     <dbl>       <dbl>
    ##  1 Alabama                    39.2          77
    ##  2 Alaska                     34.6          45
    ##  3 Arizona                    37.9          53
    ##  4 Arkansas                   38.3          70
    ##  5 California                 36.8          49
    ##  6 Colorado                   36.9          47
    ##  7 Connecticut                41            43
    ##  8 Delaware                   40.7          52
    ##  9 District of Columbia       34            53
    ## 10 Florida                    42.2          54
    ## # … with 41 more rows
…
``` r
# Merges 'election' & 'age_religion' datsets by keeping all rows & observations from both datasets
USelection <- election %>%
  full_join(age_religion, by="state") %>%
  # Reorders appearance of variables in dataset for clarity
  select(state, region, turnout, median_age, religiosity, highschool_grad, college_grad, gdp_capita, everything())

# Shows final dataset in tabular form
print(USelection)
```

    ## # A tibble: 51 x 10
    ##    state      region turnout median_age religiosity highschool_grad college_grad
    ##    <chr>      <chr>    <dbl>      <dbl>       <dbl>           <dbl>        <dbl>
    ##  1 Alabama    South     59         39.2          77            84.3         23.5
    ##  2 Alaska     West      61.3       34.6          45            92.1         28  
    ##  3 Arizona    West      55         37.9          53            86           27.5
    ##  4 Arkansas   South     52.8       38.3          70            84.8         21.1
    ##  5 California West      56.7       36.8          49            81.8         31.4
    ##  6 Colorado   West      70.1       36.9          47            90.7         38.1
    ##  7 Connectic… North…    65.2       41            43            89.9         37.6
    ##  8 Delaware   South     64.4       40.7          52            88.4         30  
    ##  9 District … South     60.9       34            53            89.3         54.6
    ## 10 Florida    South     64.6       42.2          54            86.9         27.3
    ## # … with 41 more rows, and 3 more variables: gdp_capita <dbl>,
    ## #   swing_state <fct>, trump_won <fct>
…
``` r
# Filters dataset by states Trump won
USelection %>% select(state, trump_won, everything()) %>% filter(trump_won=="yes")
```

    ## # A tibble: 30 x 10
    ##    state    trump_won region      turnout median_age religiosity highschool_grad
    ##    <chr>    <fct>     <chr>         <dbl>      <dbl>       <dbl>           <dbl>
    ##  1 Alabama  yes       South          59         39.2          77            84.3
    ##  2 Alaska   yes       West           61.3       34.6          45            92.1
    ##  3 Arizona  yes       West           55         37.9          53            86  
    ##  4 Arkansas yes       South          52.8       38.3          70            84.8
    ##  5 Florida  yes       South          64.6       42.2          54            86.9
    ##  6 Georgia  yes       South          59.2       36.9          66            85.4
    ##  7 Idaho    yes       West           59.1       36.6          51            89.5
    ##  8 Indiana  yes       North Cent…    56.4       37.9          54            87.8
    ##  9 Iowa     yes       North Cent…    68.4       38.2          55            91.5
    ## 10 Kansas   yes       North Cent…    57.7       36.9          55            90.2
    ## # … with 20 more rows, and 3 more variables: college_grad <dbl>,
    ## #   gdp_capita <dbl>, swing_state <fct>

#### Select

select() chooses columns and variables of a dataset. The dataset was
explored by selecting columns of interests together as shown below.

``` r
# Selects for politically related variables 
USelection %>% select(state, turnout, swing_state, trump_won)
```

    ## # A tibble: 51 x 4
    ##    state                turnout swing_state trump_won
    ##    <chr>                  <dbl> <fct>       <fct>    
    ##  1 Alabama                 59   no          yes      
    ##  2 Alaska                  61.3 no          yes      
    ##  3 Arizona                 55   no          yes      
    ##  4 Arkansas                52.8 no          yes      
    ##  5 California              56.7 no          no       
    ##  6 Colorado                70.1 yes         no       
    ##  7 Connecticut             65.2 no          no       
    ##  8 Delaware                64.4 no          no       
    ##  9 District of Columbia    60.9 no          no       
    ## 10 Florida                 64.6 yes         yes      
    ## # … with 41 more rows

``` r
# Selects for education related variables & whether Trump won the state
USelection %>% select(state, highschool_grad, college_grad, trump_won)
```

    ## # A tibble: 51 x 4
    ##    state                highschool_grad college_grad trump_won
    ##    <chr>                          <dbl>        <dbl> <fct>    
    ##  1 Alabama                         84.3         23.5 yes      
    ##  2 Alaska                          92.1         28   yes      
    ##  3 Arizona                         86           27.5 yes      
    ##  4 Arkansas                        84.8         21.1 yes      
    ##  5 California                      81.8         31.4 no       
    ##  6 Colorado                        90.7         38.1 no       
    ##  7 Connecticut                     89.9         37.6 no       
    ##  8 Delaware                        88.4         30   no       
    ##  9 District of Columbia            89.3         54.6 no       
    ## 10 Florida                         86.9         27.3 yes      
    ## # … with 41 more rows

#### Arrange

arrange() sorts row of a dataset. The dataset was explored by arranging
voter turnout in both ascending and descending order as shown below.

``` r
# Arranges voter turnout for each state in ascending order 
USelection %>% arrange(turnout)
```

    ## # A tibble: 51 x 10
    ##    state    region   turnout median_age religiosity highschool_grad college_grad
    ##    <chr>    <chr>      <dbl>      <dbl>       <dbl>           <dbl>        <dbl>
    ##  1 Hawaii   West        42.2       39.2          47            91           30.8
    ##  2 West Vi… South       50.1       42.7          69            85           19.2
    ##  3 Tenness… South       51.2       38.8          73            85.5         24.9
    ##  4 Texas    South       51.6       34.8          64            81.9         27.6
    ##  5 Oklahoma South       52.4       36.7          66            86.9         24.1
    ##  6 Arkansas South       52.8       38.3          70            84.8         21.1
    ##  7 New Mex… West        54.8       38.1          57            84.2         26.3
    ##  8 Arizona  West        55         37.9          53            86           27.5
    ##  9 Mississ… South       55.6       37.7          77            82.3         20.7
    ## 10 Indiana  North C…    56.4       37.9          54            87.8         24.1
    ## # … with 41 more rows, and 3 more variables: gdp_capita <dbl>,
    ## #   swing_state <fct>, trump_won <fct>

``` r
# Arranges voter turnout for each state in descending order
USelection %>% arrange(desc(turnout))
```

    ## # A tibble: 51 x 10
    ##    state    region   turnout median_age religiosity highschool_grad college_grad
    ##    <chr>    <chr>      <dbl>      <dbl>       <dbl>           <dbl>        <dbl>
    ##  1 Minneso… North C…    74.2       38.1          49            92.4         33.7
    ##  2 New Ham… Northea…    71.4       43            33            92.3         34.9
    ##  3 Maine    Northea…    70.5       44.9          34            91.6         29  
    ##  4 Colorado West        70.1       36.9          47            90.7         38.1
    ##  5 Wiscons… North C…    69.4       39.6          45            91           27.8
    ##  6 Iowa     North C…    68.4       38.2          55            91.5         26.7
    ##  7 Massach… Northea…    67.2       39.4          33            89.8         40.5
    ##  8 Maryland South       66.6       38.8          54            89.4         37.9
    ##  9 Oregon   West        66.4       39.4          48            89.8         30.8
    ## 10 Virginia South       66.1       38.4          61            88.3         36.3
    ## # … with 41 more rows, and 3 more variables: gdp_capita <dbl>,
    ## #   swing_state <fct>, trump_won <fct>
…
The dataset was explored by creating a categorical variable out of the
numerical value of median age by state and describing whether a state’s
median age is above, below or equal to the country’s median age of 38.2
years.

``` r
# Creates categorical variable indicating whether a state's median age is above, below or equal to the country's median age of 38.2 years
USelection %>% mutate(median_age_US = case_when(median_age>38.2 ~ "above",
                                                median_age==38.2 ~ "equal",
                                                median_age<38.2 ~ "below")) %>%
  select(state, median_age, median_age_US, everything())
```

    ## # A tibble: 51 x 11
    ##    state     median_age median_age_US region turnout religiosity highschool_grad
    ##    <chr>          <dbl> <chr>         <chr>    <dbl>       <dbl>           <dbl>
    ##  1 Alabama         39.2 above         South     59            77            84.3
    ##  2 Alaska          34.6 below         West      61.3          45            92.1
    ##  3 Arizona         37.9 below         West      55            53            86  
    ##  4 Arkansas        38.3 above         South     52.8          70            84.8
    ##  5 Californ…       36.8 below         West      56.7          49            81.8
    ##  6 Colorado        36.9 below         West      70.1          47            90.7
    ##  7 Connecti…       41   above         North…    65.2          43            89.9
    ##  8 Delaware        40.7 above         South     64.4          52            88.4
    ##  9 District…       34   below         South     60.9          53            89.3
    ## 10 Florida         42.2 above         South     64.6          54            86.9
    ## # … with 41 more rows, and 4 more variables: college_grad <dbl>,
    ## #   gdp_capita <dbl>, swing_state <fct>, trump_won <fct>
…
#### Summary Statistics for GDP Per Capita

``` r
# Summarizes statistics for GDP per capita
USelection %>%
  summarise(mean(gdp_capita), sd(gdp_capita), var(gdp_capita), min(gdp_capita), max(gdp_capita), median(gdp_capita), mfv(gdp_capita), IQR(gdp_capita), n_distinct(gdp_capita))
```

    ## # A tibble: 51 x 9
    ##    `mean(gdp_capita)` `sd(gdp_capita)` `var(gdp_capita)` `min(gdp_capita)`
    ##                 <dbl>            <dbl>             <dbl>             <dbl>
    ##  1             55785.           20689.        428044658.             35717
    ##  2             55785.           20689.        428044658.             35717
    ##  3             55785.           20689.        428044658.             35717
    ##  4             55785.           20689.        428044658.             35717
    ##  5             55785.           20689.        428044658.             35717
    ##  6             55785.           20689.        428044658.             35717
    ##  7             55785.           20689.        428044658.             35717
    ##  8             55785.           20689.        428044658.             35717
    ##  9             55785.           20689.        428044658.             35717
    ## 10             55785.           20689.        428044658.             35717
    ## # … with 41 more rows, and 5 more variables: max(gdp_capita) <dbl>,
    ## #   median(gdp_capita) <dbl>, mfv(gdp_capita) <dbl>, IQR(gdp_capita) <dbl>,
    ## #   n_distinct(gdp_capita) <int>
…
Next, summary statistics were calculated for each numerical value by
whether the state in the U.S. election was won by Trump or not.

#### Summary Statistics by Trump won & non-won states

``` r
# Summarizes statistics for voter turnout by whether Trump won the state or not
USelection %>%
  group_by(trump_won) %>%
 summarise(mean(turnout), sd(turnout), var(turnout), min(turnout), max(turnout), median(turnout), mfv(turnout), IQR(turnout), n_distinct(turnout))
```

    ## # A tibble: 22 x 10
    ## # Groups:   trump_won [2]
    ##    trump_won `mean(turnout)` `sd(turnout)` `var(turnout)` `min(turnout)`
    ##    <fct>               <dbl>         <dbl>          <dbl>          <dbl>
    ##  1 no                   63.1          7.06           49.9           42.2
    ##  2 no                   63.1          7.06           49.9           42.2
    ##  3 no                   63.1          7.06           49.9           42.2
    ##  4 no                   63.1          7.06           49.9           42.2
    ##  5 no                   63.1          7.06           49.9           42.2
    ##  6 no                   63.1          7.06           49.9           42.2
    ##  7 no                   63.1          7.06           49.9           42.2
    ##  8 no                   63.1          7.06           49.9           42.2
    ##  9 no                   63.1          7.06           49.9           42.2
    ## 10 no                   63.1          7.06           49.9           42.2
    ## # … with 12 more rows, and 5 more variables: max(turnout) <dbl>,
    ## #   median(turnout) <dbl>, mfv(turnout) <dbl>, IQR(turnout) <dbl>,
    ## #   n_distinct(turnout) <int>
…
``` r
# Summarizes statistics for GDP per capita by whether Trump won the state or not
USelection %>%
  group_by(trump_won) %>%
  summarise(mean(gdp_capita), sd(gdp_capita), var(gdp_capita), min(gdp_capita), max(gdp_capita), median(gdp_capita), mfv(gdp_capita), IQR(gdp_capita), n_distinct(gdp_capita))
```

    ## # A tibble: 51 x 10
    ## # Groups:   trump_won [2]
    ##    trump_won `mean(gdp_capit… `sd(gdp_capita)` `var(gdp_capita… `min(gdp_capita…
    ##    <fct>                <dbl>            <dbl>            <dbl>            <dbl>
    ##  1 no                  64143.           28252.       798185455.            41477
    ##  2 no                  64143.           28252.       798185455.            41477
    ##  3 no                  64143.           28252.       798185455.            41477
    ##  4 no                  64143.           28252.       798185455.            41477
    ##  5 no                  64143.           28252.       798185455.            41477
    ##  6 no                  64143.           28252.       798185455.            41477
    ##  7 no                  64143.           28252.       798185455.            41477
    ##  8 no                  64143.           28252.       798185455.            41477
    ##  9 no                  64143.           28252.       798185455.            41477
    ## 10 no                  64143.           28252.       798185455.            41477
    ## # … with 41 more rows, and 5 more variables: max(gdp_capita) <dbl>,
    ## #   median(gdp_capita) <dbl>, mfv(gdp_capita) <dbl>, IQR(gdp_capita) <dbl>,
    ## #   n_distinct(gdp_capita) <int>
…
